{
  "page": 5,
  "total_results": 102,
  "total_pages": 6,
  "results": [
    {
      "vote_count": 1,
      "id": 331984,
      "video": false,
      "vote_average": 2,
      "title": "The Real Jurassic Park",
      "popularity": 0.95,
      "poster_path": "/yki5QW06ZKkDbFGwlLbk724BTJj.jpg",
      "original_language": "en",
      "original_title": "The Real Jurassic Park",
      "genre_ids": [99],
      "backdrop_path": null,
      "adult": false,
      "overview": "Could scientists one day create a living dinosaur using 100 million-year-old DNA? Find out in this tantalizing program from the award-winning NOVA series.",
      "release_date": "1993-11-09"
    },
    {
      "vote_count": 1,
      "id": 83206,
      "video": false,
      "vote_average": 6,
      "title": "One of the Hollywood Ten",
      "popularity": 0.913,
      "poster_path": "/reVLZ3BtMF8ikJmcjXukQg0kDxu.jpg",
      "original_language": "fr",
      "original_title": "One of the Hollywood Ten",
      "genre_ids": [18, 36],
      "backdrop_path": null,
      "adult": false,
      "overview": "Herbert Biberman struggles as a Hollywood writer and director blacklisted as one of The Hollywood Ten in the 1950s.",
      "release_date": "2002-06-07"
    },
    {
      "vote_count": 2,
      "id": 47281,
      "video": false,
      "vote_average": 5.5,
      "title": "War Stories",
      "popularity": 0.91,
      "poster_path": "/f2CMGhIabigGtfC9leoF46OPUew.jpg",
      "original_language": "en",
      "original_title": "War Stories",
      "genre_ids": [18, 10752],
      "backdrop_path": null,
      "adult": false,
      "overview": "A feature-length pilot film for a proposed NBC series, War Stories is set in a battle-torn Middle Eastern country that is obviously Uzbekistan (but not identified as such). Cynical, hard-as-nails American war correspondent Ben Dansmore (Jeff Goldblum) balks at being assigned a new photographer/partner so soon after the newcomer's predecessor (who happened to be Ben's best friend) was literally blown to bits while covering a hot story. \"There's no such thing as truth; that's why they call them stories.\" That is Ben's philosophy, one that he hopes to impart to idealistic young Nora Stone (Lake Bell). But Nora, whose sister died in the terrorist attacks of September 11, refuses to be as cold and dispassionate as Ben. It takes a series of near-death experiences dodging bullets and fanatical rebels for Ben and Nora to find the common ground so necessary to their future teamwork.",
      "release_date": "2003-01-29"
    },
    {
      "vote_count": 0,
      "id": 481892,
      "video": false,
      "vote_average": 0,
      "title": "The Big Chill: A Reunion",
      "popularity": 0.883,
      "poster_path": null,
      "original_language": "en",
      "original_title": "The Big Chill: A Reunion",
      "genre_ids": [99],
      "backdrop_path": null,
      "adult": false,
      "overview": "A look back at the making of the film \"The Big Chill\" (1983) with cast and crew.",
      "release_date": "1999-01-26"
    },
    {
      "vote_count": 0,
      "id": 106563,
      "video": false,
      "vote_average": 0,
      "title": "Ernie Kovacs: Between the Laughter",
      "popularity": 0.876,
      "poster_path": "/xgmEMVB3a32l9wIwdxHYzPT7Weh.jpg",
      "original_language": "en",
      "original_title": "Ernie Kovacs: Between the Laughter",
      "genre_ids": [18, 10770],
      "backdrop_path": null,
      "adult": false,
      "overview": "This is a splendid little sleeper of a movie. Ernie Kovacs was one of the giants of early television. I think he would be pleased with the way Jeff Goldbloom captures his wonky personality. Melody Anderson also distills that of Edie Adams. There is a very basic heart tugging story about the search for Kovacs' two abducted daughters. But at the same time the film is funny --- Cloris Leachman is a hoot as Kovacs impossible mom --- and has many of the offbeat and innovative qualities of the old Kovacs show itself.",
      "release_date": "1984-05-14"
    },
    {
      "vote_count": 1,
      "id": 117529,
      "video": false,
      "vote_average": 5,
      "title": "Framed",
      "popularity": 0.871,
      "poster_path": "/zUJ8suomlJL6STqDZDeADqQovtf.jpg",
      "original_language": "en",
      "original_title": "Framed",
      "genre_ids": [80, 35],
      "backdrop_path": null,
      "adult": false,
      "overview": "A painter is accused of art-forging. He thinks his girlfriend betrayed him, so it's time for revenge.",
      "release_date": "1990-06-24"
    },
    {
      "vote_count": 0,
      "id": 59310,
      "video": false,
      "vote_average": 0,
      "title": "Hollywood's Creepiest Creatures",
      "popularity": 0.842,
      "poster_path": "/jjQOd1NEpyTLbvlYfVdPqYvL9A0.jpg",
      "original_language": "en",
      "original_title": "Hollywood's Creepiest Creatures",
      "genre_ids": [99],
      "backdrop_path": null,
      "adult": false,
      "overview": "Elvira hosts this humorous look at movie monsters and facts about the real animals on which they're based. Included: clips from films; and interviews with scientists and various showbiz types, including directors John Carpenter and John Landis, and actors Jeff Goldblum and Roy Scheider.",
      "release_date": "2004-10-30"
    },
    {
      "vote_count": 2,
      "id": 37541,
      "video": false,
      "vote_average": 7.3,
      "title": "Buckaroo Banzai Declassified",
      "popularity": 0.711,
      "poster_path": "/imOXNJrQPr9wXbegmhB43eFtXlO.jpg",
      "original_language": "en",
      "original_title": "Buckaroo Banzai Declassified",
      "genre_ids": [99],
      "backdrop_path": "/bXWg3XHOozShmEsDSucLSpm4L27.jpg",
      "adult": false,
      "overview": "A documentary found on The Adventures of Buckaroo Banzai Across The 8th Dimension Special Edition DVD.",
      "release_date": "2002-01-01"
    },
    {
      "vote_count": 2,
      "id": 55829,
      "video": false,
      "vote_average": 7.3,
      "title": "Life Story",
      "popularity": 0.698,
      "poster_path": "/jxTEgm9atwTKat7Igz0GBt8myTH.jpg",
      "original_language": "en",
      "original_title": "Life Story",
      "genre_ids": [],
      "backdrop_path": null,
      "adult": false,
      "overview": "Watson and Crick race to find the structure of DNA before Linus Pauling, Maurice Wilkins, or Rosalind Franklin can find the key to unlocking the secret.",
      "release_date": "1987-09-14"
    },
    {
      "vote_count": 1,
      "id": 94361,
      "video": false,
      "vote_average": 6,
      "title": "Shooting Elizabeth",
      "popularity": 0.667,
      "poster_path": "/mbbZT93v8JdiGdYkHYEDbJ8wmuy.jpg",
      "original_language": "en",
      "original_title": "Shooting Elizabeth",
      "genre_ids": [35, 53],
      "backdrop_path": null,
      "adult": false,
      "overview": "Before a man (Jeff Goldblum) can kill his nagging wife (Mimi Rogers) as planned, she disappears and he's charged with murder.",
      "release_date": "1992-11-18"
    },
    {
      "vote_count": 1,
      "id": 415950,
      "video": false,
      "vote_average": 7,
      "title": "This Is an Adventure",
      "popularity": 0.622,
      "poster_path": null,
      "original_language": "en",
      "original_title": "This Is an Adventure",
      "genre_ids": [99],
      "backdrop_path": null,
      "adult": false,
      "overview": "During production on the film \"The Life Aquatic with Steve Zissou\", documentary filmmakers followed the cast and crew of a film which depicts other documentary filmmakers who follow animal life. In this film, we get a first hand look at the sets and come very close to many of the cast and crew members at work, especially Bill Murray and Wes Anderson.",
      "release_date": "2005-05-10"
    },
    {
      "vote_count": 1,
      "id": 363377,
      "video": false,
      "vote_average": 9,
      "title": "Long Live the New Flesh: The Films of David Cronenberg",
      "popularity": 0.62,
      "poster_path": "/8Te0QRu6K9sC6TXJo2i8qYEdGxG.jpg",
      "original_language": "en",
      "original_title": "Long Live the New Flesh: The Films of David Cronenberg",
      "genre_ids": [99],
      "backdrop_path": null,
      "adult": false,
      "overview": "Documentary about the career of director David Cronenberg, with clips from his films and interviews with friends, colleagues, film critics and Cronenberg himself.",
      "release_date": "1986-01-01"
    },
    {
      "vote_count": 5,
      "id": 66108,
      "video": false,
      "vote_average": 6.8,
      "title": "Rehearsal for Murder",
      "popularity": 0.607,
      "poster_path": "/p74yjIimdKSJp269xb2vxQDkVgw.jpg",
      "original_language": "en",
      "original_title": "Rehearsal for Murder",
      "genre_ids": [18, 9648, 53],
      "backdrop_path": null,
      "adult": false,
      "overview": "A year after his fiancée's death, a playwright schedules a rehearsal for his new play, which proves to be a trap for her killer.",
      "release_date": "1982-05-26"
    },
    {
      "vote_count": 0,
      "id": 584781,
      "video": false,
      "vote_average": 0,
      "title": "On the Set: The Life Aquatic with Steve Zissou",
      "popularity": 0.6,
      "poster_path": null,
      "original_language": "en",
      "original_title": "On the Set: The Life Aquatic with Steve Zissou",
      "genre_ids": [99],
      "backdrop_path": null,
      "adult": false,
      "overview": "A making-of featurette for Wes Anderson's 2004 film.",
      "release_date": "2005-01-05"
    },
    {
      "vote_count": 0,
      "id": 528482,
      "video": false,
      "vote_average": 0,
      "title": "The Price of Admission",
      "popularity": 0.6,
      "poster_path": null,
      "original_language": "en",
      "original_title": "The Price of Admission",
      "genre_ids": [35, 18],
      "backdrop_path": null,
      "adult": false,
      "overview": "Harold Sugar is a middling playwright amidst a mid-life crisis and a failing marriage. Incapable of functioning in reality, he submerges himself into a play about his life. Blurring the line of fiction and reality, we follow Harold as he descends into madness.",
      "release_date": ""
    },
    {
      "vote_count": 0,
      "id": 606057,
      "video": false,
      "vote_average": 0,
      "title": "Peanuts in Space: Secrets of Apollo 10",
      "popularity": 0.6,
      "poster_path": "/zIx2vEVBwT2SALGVY8Uik86pfzP.jpg",
      "original_language": "en",
      "original_title": "Peanuts in Space: Secrets of Apollo 10",
      "genre_ids": [],
      "backdrop_path": null,
      "adult": false,
      "overview": "To celebrate the 50th anniversary of the moon landing, this documentary tries to solve the great mystery: Was Snoopy a top-secret astronaut?",
      "release_date": "2019-05-18"
    },
    {
      "vote_count": 0,
      "id": 525331,
      "video": false,
      "vote_average": 0,
      "title": "Roswell Top Secret",
      "popularity": 0.6,
      "poster_path": null,
      "original_language": "en",
      "original_title": "Roswell Top Secret",
      "genre_ids": [99],
      "backdrop_path": null,
      "adult": false,
      "overview": "Something happened near the town of Rosewell. This event came to be known as the Rosewell incident. The town has since become synonymous with flying saucers crashes, alien visitation, government cover up, or what many say, a jump to conclusions and a gross distortion of facts.",
      "release_date": "1998-01-01"
    },
    {
      "vote_count": 0,
      "id": 499117,
      "video": false,
      "vote_average": 0,
      "title": "Abby Singer",
      "popularity": 0.6,
      "poster_path": "/da0lRrlrutEChD6DIdMt0N5iV7P.jpg",
      "original_language": "en",
      "original_title": "Abby Singer",
      "genre_ids": [18, 35],
      "backdrop_path": null,
      "adult": false,
      "overview": "Chronicles the life of Curtis Clemins, who is torn between the love of his life and accomplishing his dream. When hitting rock bottom during the Sundance Film Festival, Clemins' calls upon his old college chum, Kevin Prouse, giving the now drunken acting instructor in the throes of a divorce, the only clue that will salvage Clemins' rapidly deteriorating life.",
      "release_date": "2003-10-28"
    },
    {
      "vote_count": 0,
      "id": 601967,
      "video": false,
      "vote_average": 0,
      "title": "Sing! Sesame Street Remembers Joe Raposo and His Music",
      "popularity": 0.6,
      "poster_path": null,
      "original_language": "en",
      "original_title": "Sing! Sesame Street Remembers Joe Raposo and His Music",
      "genre_ids": [10751],
      "backdrop_path": null,
      "adult": false,
      "overview": "A television special broadcast on PBS in honor of composer, songwriter, pianist, television writer and lyricist Joe Raposo after he passed away.",
      "release_date": "1990-05-16"
    },
    {
      "vote_count": 0,
      "id": 573553,
      "video": false,
      "vote_average": 0,
      "title": "The Town Where No One Got Off",
      "popularity": 0.6,
      "poster_path": "/9LMxjCZqnUJNa79gnFsEXGu2XTU.jpg",
      "original_language": "en",
      "original_title": "The Town Where No One Got Off",
      "genre_ids": [],
      "backdrop_path": null,
      "adult": false,
      "overview": "Provoked by the snobbish attitude of a city slicker towards the people from the countryside, a man gets off his train at a random village to confirm his positive attitude about the country folk. He's in for a surprise - but so are they.",
      "release_date": "1986-02-22"
    }
  ]
}
