{
  "page": 6,
  "total_results": 102,
  "total_pages": 6,
  "results": [
    {
      "vote_count": 1,
      "id": 474757,
      "video": false,
      "vote_average": 5,
      "title": "Robert Altman's Players",
      "popularity": 0.6,
      "poster_path": null,
      "original_language": "en",
      "original_title": "Robert Altman's Players",
      "genre_ids": [99],
      "backdrop_path": null,
      "adult": false,
      "overview": "Behind-the-scenes documentary about a fundraiser which was staged for Robert Altman's film \"The Player\" (1992).",
      "release_date": "1992-01-01"
    },
    {
      "vote_count": 4,
      "id": 122708,
      "video": false,
      "vote_average": 4.8,
      "title": "Special Delivery",
      "popularity": 0.6,
      "poster_path": "/2jy9nmgy9QaONNrZhIirKs0atat.jpg",
      "original_language": "en",
      "original_title": "Special Delivery",
      "genre_ids": [28],
      "backdrop_path": null,
      "adult": false,
      "overview": "A gang of thieves plan a daring bank robbery, making their escape across the rooftops of Los Angeles. The police are quickly called in, however, and only one of the robbers, Murdock, makes a clean getaway. Unfortunately, in order to do so, he is forced to dump the stolen cash into a mailbox, which he then finds is locked until midnight, forcing him to wait until the mailman makes his late night pickup. As he waits, he discovers that his hiding place has been observed by several other people, all of whom want a share of the loot.",
      "release_date": "1976-07-16"
    }
  ]
}
