{"page":1,"total_results":102,"total_pages":6,"results":[{"vote_count":11593,"id":284053,"video":false,"vote_average":7.5,"title":"Thor: Ragnarok","popularity":46.701,"poster_path":"\/rzRwTcFvttcN1ZpX2xv4j3tSdJu.jpg","original_language":"en","original_title":"Thor: Ragnarok","genre_ids":[28,12,35,14],"backdrop_path":"\/kaIfm5ryEOwYg8mLbq8HkPuM1Fo.jpg","adult":false,"overview":"Thor is imprisoned on the other side of the universe and finds himself in a race against time to get back to Asgard to stop Ragnarok, the destruction of his home-world and the end of Asgardian civilization, at the hands of an all-powerful new threat, the ruthless Hela.","release_date":"2017-10-25"},{"vote_count":6111,"id":351286,"video":false,"vote_average":6.5,"title":"Jurassic World: Fallen Kingdom","popularity":43.745,"poster_path":"\/c9XxwwhPHdaImA2f1WEfEsbhaFB.jpg","original_language":"en","original_title":"Jurassic World: Fallen Kingdom","genre_ids":[28,12,878],"backdrop_path":"\/3s9O5af2xWKWR5JzP2iJZpZeQQg.jpg","adult":false,"overview":"Three years after the demise of Jurassic World, a volcanic eruption threatens the remaining dinosaurs on the isla Nublar, so Claire Dearing, the former park manager, recruits Owen Grady to help prevent the extinction of the dinosaurs once again.","release_date":"2018-06-06"},{"vote_count":12726,"id":283995,"video":false,"vote_average":7.7,"title":"Guardians of the Galaxy Vol. 2","popularity":36.616,"poster_path":"\/y4MBh0EjBlMuOzv9axM4qJlmhzz.jpg","original_language":"en","original_title":"Guardians of the Galaxy Vol. 2","genre_ids":[28,12,35,878],"backdrop_path":"\/tM894AtE7UQTJEoQG6qF6mdfSUT.jpg","adult":false,"overview":"The Guardians must fight to keep their newfound family together as they unravel the mysteries of Peter Quill's true parentage.","release_date":"2017-04-19"},{"vote_count":5544,"id":602,"video":false,"vote_average":6.8,"title":"Independence Day","popularity":22.562,"poster_path":"\/bqLlWZJdhrS0knfEJRkquW7L8z2.jpg","original_language":"en","original_title":"Independence Day","genre_ids":[28,12,878],"backdrop_path":"\/4E2xKGrU2qcqUE2S3Nl27hwZdqy.jpg","adult":false,"overview":"On July 2, a giant alien mothership enters orbit around Earth and deploys several dozen saucer-shaped 'destroyer' spacecraft that quickly lay waste to major cities around the planet. On July 3, the United States conducts a coordinated counterattack that fails. On July 4, a plan is devised to gain access to the interior of the alien mothership in space, in order to plant a nuclear missile.","release_date":"1996-06-25"},{"vote_count":9136,"id":329,"video":false,"vote_average":7.9,"title":"Jurassic Park","popularity":17.464,"poster_path":"\/c414cDeQ9b6qLPLeKmiJuLDUREJ.jpg","original_language":"en","original_title":"Jurassic Park","genre_ids":[12,878],"backdrop_path":"\/8LZ0r7r2SdJIApRvGo2k6CXHq8x.jpg","adult":false,"overview":"A wealthy entrepreneur secretly creates a theme park featuring living dinosaurs drawn from prehistoric DNA. Before opening day, he invites a team of experts and his two eager grandchildren to experience the park and help calm anxious investors. However, the park is anything but amusing as the security systems go off-line and the dinosaurs escape.","release_date":"1993-06-11"},{"vote_count":2027,"id":399174,"video":false,"vote_average":7.9,"title":"Isle of Dogs","popularity":17.185,"poster_path":"\/c0nUX6Q1ZB0P2t1Jo6EeFSVnOGQ.jpg","original_language":"en","original_title":"Isle of Dogs","genre_ids":[12,35,16],"backdrop_path":"\/dkk1wFBDhPzLXPwVmHTRzny3rkX.jpg","adult":false,"overview":"In the future, an outbreak of canine flu leads the mayor of a Japanese city to banish all dogs to an island that's a garbage dump. The outcasts must soon embark on an epic journey when a 12-year-old boy arrives on the island to find his beloved pet.","release_date":"2018-03-23"},{"vote_count":8189,"id":120467,"video":false,"vote_average":8,"title":"The Grand Budapest Hotel","popularity":17.154,"poster_path":"\/nX5XotM9yprCKarRH4fzOq1VM1J.jpg","original_language":"en","original_title":"The Grand Budapest Hotel","genre_ids":[35,18],"backdrop_path":"\/5FPUoQtnNC0C0YZ7sUeTLq6eZqa.jpg","adult":false,"overview":"The Grand Budapest Hotel tells of a legendary concierge at a famous European hotel between the wars and his friendship with a young employee who becomes his trusted protégé. The story involves the theft and recovery of a priceless Renaissance painting, the battle for an enormous family fortune and the slow and then sudden upheavals that transformed Europe during the first half of the 20th century.","release_date":"2014-02-26"},{"vote_count":3952,"id":47933,"video":false,"vote_average":5.1,"title":"Independence Day: Resurgence","popularity":17.076,"poster_path":"\/5CHJs479xWnm3zMDOl94VkKS7MZ.jpg","original_language":"en","original_title":"Independence Day: Resurgence","genre_ids":[28,12,878],"backdrop_path":"\/mou66QcacavDahfyuaqKfaCLdoI.jpg","adult":false,"overview":"We always knew they were coming back. Using recovered alien technology, the nations of Earth have collaborated on an immense defense program to protect the planet. But nothing can prepare us for the aliens’ advanced and unprecedented force. Only the ingenuity of a few brave men and women can bring our world back from the brink of extinction.","release_date":"2016-06-22"},{"vote_count":1695,"id":210860,"video":false,"vote_average":5.4,"title":"Mortdecai","popularity":16.612,"poster_path":"\/56rS3ipzekH2VlHpnH8VOTkKjwR.jpg","original_language":"en","original_title":"Mortdecai","genre_ids":[35,12],"backdrop_path":"\/wNnuYx5tMiVEnru3zJS85kSzzRs.jpg","adult":false,"overview":"Art dealer, Charles Mortdecai, searches for a stolen painting rumored to contain a secret code that gains access to hidden Nazi gold.","release_date":"2015-01-21"},{"vote_count":491,"id":406761,"video":false,"vote_average":5.9,"title":"Hotel Artemis","popularity":12.601,"poster_path":"\/wUTiyJ9N8rVLOxJz7aVpaBLpbot.jpg","original_language":"en","original_title":"Hotel Artemis","genre_ids":[53,878,28],"backdrop_path":"\/rjE0Vf4z3WELachJnAHT7WVTgwR.jpg","adult":false,"overview":"Los Angeles, June 21st, 2028. While the streets are being torn apart by riots, the Nurse, who runs a clandestine hospital for criminals in the penthouse of the Artemis, a closed old hotel, has a rough night dealing with troublemaker clients: thieves, assassins, someone from the past and the one who owns the place and the whole city.","release_date":"2018-06-07"},{"vote_count":1998,"id":703,"video":false,"vote_average":7.8,"title":"Annie Hall","popularity":12.077,"poster_path":"\/bK9bLXwxWuXX5mbq75PZqjvAtfG.jpg","original_language":"en","original_title":"Annie Hall","genre_ids":[35,18,10749],"backdrop_path":"\/8iNt5LGxpX9XeNWJgjx17xfTT7u.jpg","adult":false,"overview":"New York comedian Alvy Singer falls in love with the ditsy Annie Hall.","release_date":"1977-04-19"},{"vote_count":1353,"id":421,"video":false,"vote_average":7.2,"title":"The Life Aquatic with Steve Zissou","popularity":12.002,"poster_path":"\/kKwNRePEqTfC6DnNlJzz1yX44iR.jpg","original_language":"en","original_title":"The Life Aquatic with Steve Zissou","genre_ids":[12,35,18],"backdrop_path":"\/x2EutNySnFRVrjOXsnGyj3HHvf7.jpg","adult":false,"overview":"Renowned oceanographer Steve Zissou has sworn vengeance upon the rare shark that devoured a member of his crew. In addition to his regular team, he is joined on his boat by Ned, a man who believes Zissou to be his father, and Jane, a journalist pregnant by a married man. They travel the sea, all too often running into pirates and, perhaps more traumatically, various figures from Zissou's past, including his estranged wife, Eleanor.","release_date":"2004-12-10"},{"vote_count":1980,"id":9426,"video":false,"vote_average":7.2,"title":"The Fly","popularity":11.588,"poster_path":"\/q49tjSe3O152t9QVwaradePGu7W.jpg","original_language":"en","original_title":"The Fly","genre_ids":[27,878],"backdrop_path":"\/bukhBqYdlcLxQBL1rVswewSka6R.jpg","adult":false,"overview":"When Seth Brundle makes a huge scientific and technological breakthrough in teleportation, he decides to test it on himself. Unbeknownst to him, a common housefly manages to get inside the device and the two become one.","release_date":"1986-08-15"},{"vote_count":1948,"id":9837,"video":false,"vote_average":7.1,"title":"The Prince of Egypt","popularity":11.554,"poster_path":"\/wD34ls2faCrj8YvFViEaPfBtBEe.jpg","original_language":"en","original_title":"The Prince of Egypt","genre_ids":[12,16,18,10751,10402,35],"backdrop_path":"\/1yB6o6L5DLteeraLhz5Q0buBm6i.jpg","adult":false,"overview":"This is the extraordinary tale of two brothers named Moses and Ramses, one born of royal blood, and one an orphan with a secret past. Growing up the best of friends, they share a strong bond of free-spirited youth and good-natured rivalry. But the truth will ultimately set them at odds, as one becomes the ruler of the most powerful empire on earth, and the other the chosen leader of his people! Their final confrontation will forever change their lives and the world.","release_date":"1998-12-15"},{"vote_count":315,"id":10403,"video":false,"vote_average":7.2,"title":"The Player","popularity":10.398,"poster_path":"\/eoQ9H9CEySIYSPElKn2VRVY0MEa.jpg","original_language":"en","original_title":"The Player","genre_ids":[35,18,80],"backdrop_path":"\/tKyxF6ZyxF65CcJKBKId1VavpGP.jpg","adult":false,"overview":"A Hollywood studio executive is being sent death threats by a writer whose script he rejected - but which one?","release_date":"1992-04-03"},{"vote_count":821,"id":10992,"video":false,"vote_average":5.2,"title":"Cats & Dogs","popularity":10.394,"poster_path":"\/1RLlzNwnrpMMNFt71OVFAnJp6ww.jpg","original_language":"en","original_title":"Cats & Dogs","genre_ids":[35,10751],"backdrop_path":"\/2GoKwjA0K7b3BnsvBXwm68PkaJk.jpg","adult":false,"overview":"When a professor develops a vaccine that eliminates human allergies to dogs, he unwittingly upsets the fragile balance of power between cats and dogs and touches off an epic battle for pet supremacy. The fur flies as the feline faction, led by Mr. Tinkles, squares off against wide-eyed puppy Lou and his canine cohorts.","release_date":"2001-07-04"},{"vote_count":1024,"id":41210,"video":false,"vote_average":6.1,"title":"The Switch","popularity":10.064,"poster_path":"\/cikOGh4sUstWitAS3BTEpXsJ1vr.jpg","original_language":"en","original_title":"The Switch","genre_ids":[35,10749,18],"backdrop_path":"\/4UnmIN6aJhUiCIw8JlQuxUJ9vzR.jpg","adult":false,"overview":"An unmarried 40-year-old woman turns to a turkey baster in order to become pregnant. Seven years later, she reunites with her best friend, who has been living with a secret: he replaced her preferred sperm sample with his own.","release_date":"2010-05-11"},{"vote_count":737,"id":38357,"video":false,"vote_average":6.3,"title":"Morning Glory","popularity":9.717,"poster_path":"\/2SU0njucsxMOQIx5rBZDyMDi0wr.jpg","original_language":"en","original_title":"Morning Glory","genre_ids":[35,18,10749],"backdrop_path":"\/iG9m93hbjXyv2DtJx7e0KzH4SMW.jpg","adult":false,"overview":"A young and devoted morning television producer is hired as an executive producer on a  long-running morning show at a once-prominent but currently failing station in New York City. Eager to keep the show on air, she recruits a former news journalist and anchor who disapproves of co-hosting a show that does not deal with real news stories.","release_date":"2010-11-10"},{"vote_count":241,"id":12560,"video":false,"vote_average":7,"title":"The Big Chill","popularity":9.232,"poster_path":"\/rU8kjMEL5Mn0EWm3gOShPHBEZ4l.jpg","original_language":"en","original_title":"The Big Chill","genre_ids":[35,18],"backdrop_path":"\/zLudKzsMPHZgrstEx7OLMSkzZnn.jpg","adult":false,"overview":"A couple's marital troubles are put on hold while they host an unhappy reunion of former college pals gathered for the funeral of one of their own, a suicide victim named Alex. As the weekend unfolds, the friends catch up with each other, play the music of their youth, reminisce, smoke marijuana, and pair off with each other.","release_date":"1983-09-09"},{"vote_count":398,"id":9549,"video":false,"vote_average":7.5,"title":"The Right Stuff","popularity":9.187,"poster_path":"\/df1gdyE9S3DxmTfAeN3pNdSm64J.jpg","original_language":"en","original_title":"The Right Stuff","genre_ids":[18,36],"backdrop_path":"\/2ZPIAUctGFWgatWLGnFb2FPcvbo.jpg","adult":false,"overview":"A chronicle of the original Mercury astronauts in the formation of America's space program: Alan Shepherd, the first American in space; Gus Grissom, the benighted astronaut for whom nothing works out as planned; John Glenn, the straight-arrow 'boy scout' of the bunch who was the first American to orbit the earth; and the remaining pilots: Deke Slayton, Scott Carpenter and Wally Schirra.","release_date":"1983-10-20"}]}