{"page":4,"total_results":102,"total_pages":6,"results":[{"vote_count":3,"id":41183,"video":false,"vote_average":5.7,"title":"Dallas 362","popularity":1.8,"poster_path":"\/dPb9rP3GQp9d3qHUtKJSWjGIy63.jpg","original_language":"en","original_title":"Dallas 362","genre_ids":[18],"backdrop_path":"\/kQIfXU1v3zAsT4i2TXojhtSR3Cs.jpg","adult":false,"overview":"Rusty (Shawn Hatosy) has been bailed out of bad situations more than once by his understanding but distraught mother, Mary (Kelly Lynch). When Mary starts dating a psychologist, Bob (Jeff Goldblum), Rusty connects with the man and begins talking to him about his problems. As Rusty benefits from the therapy sessions, his best friend, Dallas (Scott Caan), still very involved in illegal and dangerous activities, takes issue with Rusty going straight and cleaning up his life.","release_date":"2003-09-12"},{"vote_count":21,"id":21185,"video":false,"vote_average":5.7,"title":"Vibes","popularity":1.791,"poster_path":"\/yAT8QJquco2dGBEwqQJBLfP7wtM.jpg","original_language":"en","original_title":"Vibes","genre_ids":[10749,28,35],"backdrop_path":"\/5fO1JYCYqqzse2EAM7lq8Bz5y6h.jpg","adult":false,"overview":"Medium Sylvia Pickel and psychometrist Nick Deezy meet at a psychic research facility in New York. Not long after, they're contacted by Harry Buscafusco, who offers them $50,000 to find his lost son in South America, in the heart of Incan territory where they discover an ancient mystical secret, and each other.","release_date":"1988-08-05"},{"vote_count":16,"id":66034,"video":false,"vote_average":6,"title":"Mad Dog Time","popularity":1.702,"poster_path":"\/rF7JPTZRkf3ysaAx99JqtDb0abu.jpg","original_language":"en","original_title":"Mad Dog Time","genre_ids":[18,28,35,80],"backdrop_path":"\/rnwDpRnRWfvp5RsXOogzAwY8hjv.jpg","adult":false,"overview":"With his boss in the madhouse, a mobster is temporary boss of the criminal empire just as vicious rivals threaten the control of the empire.","release_date":"1996-11-08"},{"vote_count":20,"id":27720,"video":false,"vote_average":6.3,"title":"Mister Frost","popularity":1.666,"poster_path":"\/7bDQyhFMu5yU1sT8vGRV0hi6WiF.jpg","original_language":"en","original_title":"Mister Frost","genre_ids":[27,53],"backdrop_path":"\/2xvMB9muQtl9K4SbusKwEYw3GIm.jpg","adult":false,"overview":"Frost is arrested and committed for murder after he is apprehended burying his victims in the garden. However, even while under psychiatric care and tight hospital security, it becomes obvious that Mr. Frost is not all he seems to be, but he is dangerous nonetheless","release_date":"1990-09-11"},{"vote_count":5,"id":107131,"video":false,"vote_average":6.1,"title":"The Favour, the Watch and the Very Big Fish","popularity":1.654,"poster_path":"\/v3E5GQMiFtPqXO7HOPZ4nfYb5Gg.jpg","original_language":"en","original_title":"The Favour, the Watch and the Very Big Fish","genre_ids":[35,10749],"backdrop_path":"\/yA3E4VJ7mifiY12S9MUTGdtHn2o.jpg","adult":false,"overview":"A farce, Hoskins plays a photographer who specializes in religious pictures who searches for a model for Jesus. He does a favor for a friend and finds himself doing a voice track for a porno movie with Natasha Richardson. Hoskins finds his model for Jesus in Jeff Goldblum and a romantic triangle begins in which Goldblum finds adoring crowds believing him to be Jesus and then begins to believe it himself.","release_date":"1991-05-01"},{"vote_count":9,"id":61016,"video":false,"vote_average":4.1,"title":"Perfume","popularity":1.568,"poster_path":"\/A5PX0VfX9uFfHUXUIKt1j8zeQe7.jpg","original_language":"en","original_title":"Perfume","genre_ids":[35,18],"backdrop_path":"\/pxN0GdIicVparPgcGESX2b514nd.jpg","adult":false,"overview":"A week in the lives of a group of models, photographers, agents, reporters, publicists and other characters during a wild modeling show in New York City.","release_date":"2001-04-08"},{"vote_count":3,"id":489960,"video":false,"vote_average":6,"title":"The Three Little Pigs","popularity":1.525,"poster_path":"\/qRSxJRXtF0tLb5N4hbuGZJe5oyP.jpg","original_language":"en","original_title":"The Three Little Pigs","genre_ids":[35,14],"backdrop_path":null,"adult":false,"overview":"Three pigs try to outwit the big bad wolf.","release_date":"1985-02-12"},{"vote_count":4,"id":84242,"video":false,"vote_average":5,"title":"Stories of Lost Souls","popularity":1.488,"poster_path":"\/LDGu4CCSaUB1Btiy7dQFUvCYjt.jpg","original_language":"en","original_title":"Stories of Lost Souls","genre_ids":[18],"backdrop_path":"\/il2l85ORvEZKr2tGfTLf5UI0iLj.jpg","adult":false,"overview":"Seven (or six - depending on the version) short stories of conquest, desperation and the will to overcome.","release_date":"2004-11-12"},{"vote_count":2,"id":127088,"video":false,"vote_average":3.5,"title":"Welcome to Hollywood","popularity":1.439,"poster_path":"\/6lteBH7j3De6sCYIRCXWBPskaLq.jpg","original_language":"en","original_title":"Welcome to Hollywood","genre_ids":[35],"backdrop_path":null,"adult":false,"overview":"A film director (Adam Rifkin) decides to chart the course of a young actor (Tony Markes) as he tries to make it in Hollywood...","release_date":"1998-10-01"},{"vote_count":5,"id":84207,"video":false,"vote_average":5.8,"title":"Remember My Name","popularity":1.431,"poster_path":"\/stqQ9ImdkIKeEYlMo9OHnVhFune.jpg","original_language":"en","original_title":"Remember My Name","genre_ids":[18,53],"backdrop_path":null,"adult":false,"overview":"Just released from prison, a young woman arrives in town to \"start a new life\", but soon begins stalking a married construction worker for no apparent reason, turning his life inside out and eventually terrorizing him and his wife.","release_date":"1978-02-10"},{"vote_count":8,"id":113213,"video":false,"vote_average":6.2,"title":"Auggie Rose","popularity":1.429,"poster_path":"\/lNTPMDT6tts9zLPTRjjiH5goIcC.jpg","original_language":"en","original_title":"Auggie Rose","genre_ids":[18,9648,53],"backdrop_path":"\/6eqYqHLZnWqEQeg48FeqAvA7Raw.jpg","adult":false,"overview":"An insurance salesman's humdrum existence takes a turn when a stranger, ex-con Auggie Rose, unexpectedly dies in his arms. Assuming the identity of the dead man, the salesman embarks on a double life, keeping it secret from his live-in girlfriend.","release_date":"2000-05-14"},{"vote_count":31,"id":14923,"video":false,"vote_average":6,"title":"Run Ronnie Run","popularity":1.412,"poster_path":"\/lJf4m24HUn2IXF4xWDNiJTYLTo4.jpg","original_language":"en","original_title":"Run Ronnie Run","genre_ids":[35],"backdrop_path":"\/yThONZ2GUHTaQcjgyJBUoaaD4fu.jpg","adult":false,"overview":"A redneck with an uncanny knack for getting arrested becomes the star of his own reality program.","release_date":"2002-09-16"},{"vote_count":2,"id":530992,"video":false,"vote_average":10,"title":"B.B. King: Into the Night","popularity":1.4,"poster_path":"\/qGnZppVbtNCv86tMnorB3khUS2C.jpg","original_language":"en","original_title":"B.B. King: Into the Night","genre_ids":[99,10402],"backdrop_path":null,"adult":false,"overview":"A short documentary about B.B. King and his time working on the score for the 1985 movie \"Into the Night\" starring Jeff Goldblum and Michelle Pfeiffer.","release_date":"1985-01-01"},{"vote_count":3,"id":86299,"video":false,"vote_average":4.7,"title":"Fathers & Sons","popularity":1.328,"poster_path":"\/rldYL7z40AA1fP3XvQg70Mw0lHX.jpg","original_language":"en","original_title":"Fathers & Sons","genre_ids":[53,18],"backdrop_path":null,"adult":false,"overview":"A beach runner and bookworm (Goldblum) has difficulty communicating with his son. He meets a psychic on a pier at the beach and soon his world turns topsy-turvy with a serial killer coming between him and his son. The ensuing E.S.P. experiences and danger bond father and son.","release_date":"1992-01-01"},{"vote_count":3,"id":62322,"video":false,"vote_average":5,"title":"Pittsburgh","popularity":1.269,"poster_path":"\/4W155pCChYUe90dUsAy0ISBmVEP.jpg","original_language":"en","original_title":"Pittsburgh","genre_ids":[35,99],"backdrop_path":null,"adult":false,"overview":"Jeff Goldblum put his Hollywood actor life on hold to star alongside his new girlfriend in a Pittsburgh regional theater production of The Music Man. Co-directors Bradley and LaBrache tread a surprisingly elegant line between genuine documentary and outright self-parody improv in this deliciously deadpan comedy.","release_date":"2006-09-17"},{"vote_count":7,"id":110928,"video":false,"vote_average":5.5,"title":"Twisted Obsession","popularity":1.242,"poster_path":"\/8hKSUCE9GNyLZ5sMlBcExuUHfFl.jpg","original_language":"es","original_title":"El sueño del mono loco","genre_ids":[53,9648],"backdrop_path":null,"adult":false,"overview":"Dan Gillis, an American screenwriter living in Paris, recently abandoned by his wife, and getting used to his new life as a bachelor while trying to take care of his son, Danny - is commissioned to write a script. The offer comes from Legrand, a successful producer with whom he has worked in the past, but on this occasion he is being asked to write an unconventional story with Malcolm, a young and unknown film director. Dan is undecided about the offer, seeing it as far from the kind of work he has grown used to, but Legrands insistence and the intrigue personality of the young director finally convince him to accept the work despite the reticence of Marilyn, his beautiful but disabled agent. As he starts to work, Dan discovers that there is more at stake than just a movie. His life will be changed as he immerses himself in the closed universe of incestuous relations surrounding Malcolm and his beautiful young sister Jenny, with whom Dan soon becomes obsessed","release_date":"1989-09-05"},{"vote_count":1,"id":55144,"video":false,"vote_average":7.5,"title":"Lush Life","popularity":1.176,"poster_path":"\/2DzeRMompTtyxoeUVlQTC4WEBrd.jpg","original_language":"en","original_title":"Lush Life","genre_ids":[18],"backdrop_path":null,"adult":false,"overview":"Jeff Goldblum and Forest Whitaker star as New York jazz musicians, forced to confront a life beyond their hedonistic existence when a personal crisis strikes.","release_date":"1993-10-01"},{"vote_count":3,"id":175924,"video":false,"vote_average":6,"title":"Between the Lines","popularity":1.114,"poster_path":"\/wjSyo92neG1UG6PYAf2HYxNdB6g.jpg","original_language":"en","original_title":"Between the Lines","genre_ids":[35,18],"backdrop_path":null,"adult":false,"overview":"The staff of the Back Bay Mainline, a Boston underground newspaper that rose to prominence in the 1960s, struggles with the shifting social climate of the '70s amid rumors that the paper is about to be sold to a media giant.","release_date":"1977-04-27"},{"vote_count":4474,"id":330,"video":false,"vote_average":6.4,"title":"The Lost World: Jurassic Park","popularity":1.001,"poster_path":"\/u1fXmEQUCI9CjyHCCYOPBSq2DYo.jpg","original_language":"en","original_title":"The Lost World: Jurassic Park","genre_ids":[12,28,878],"backdrop_path":"\/6KOPTlgmEb6MkKYTcDA1QAN6vGJ.jpg","adult":false,"overview":"Four years after Jurassic Park's genetically bred dinosaurs ran amok, multimillionaire John Hammond shocks chaos theorist Ian Malcolm by revealing that Hammond has been breeding more beasties at a secret location. Malcolm, his paleontologist ladylove and a wildlife videographer join an expedition to document the lethal lizards' natural behavior in this action-packed thriller.","release_date":"1997-05-23"},{"vote_count":6,"id":83726,"video":false,"vote_average":3.5,"title":"Beyond Therapy","popularity":0.983,"poster_path":"\/a0DJzsCw7pERzeEKsPOrLcQ8KcR.jpg","original_language":"en","original_title":"Beyond Therapy","genre_ids":[35],"backdrop_path":"\/dEia5DWRveNA27URgSSecs9QnU7.jpg","adult":false,"overview":"Manhattanites Bruce and Prudence are each looking for a meaningful romantic relationship and have been encouraged by their psychiatrists to find someone through the personal ads. Their first meeting is disastrous, but they begin to hit it off during their second date. However, Bruce's bisexual, live-in lover does not want to share Bruce and is willing to do whatever it takes to keep him to himself.","release_date":"1987-02-27"}]}