{"page":3,"total_results":102,"total_pages":6,"results":[{"vote_count":62,"id":79940,"video":false,"vote_average":5.8,"title":"Tim and Eric's Billion Dollar Movie","popularity":5.286,"poster_path":"\/duqeIRmBu4SWHmGxKs8AwWiCeiR.jpg","original_language":"en","original_title":"Tim and Eric's Billion Dollar Movie","genre_ids":[35],"backdrop_path":"\/b4lid1g3mKPL09gNoNOlowMcDYz.jpg","adult":false,"overview":"Two guys get a billion dollars to make a movie, only to watch their dream run off course.","release_date":"2012-03-02"},{"vote_count":36,"id":20682,"video":false,"vote_average":6,"title":"Chain of Fools","popularity":4.886,"poster_path":"\/5hGfNu04FlL8DDjoy4XF0MCtBMq.jpg","original_language":"en","original_title":"Chain of Fools","genre_ids":[28,35,80],"backdrop_path":"\/yXH51DkBfsvvpQr384UGlKPcQYK.jpg","adult":false,"overview":"An avid detective is assigned to investigate the heist of a batch of precious coins that end up in the hands of a suicidal barber.","release_date":"2000-09-22"},{"vote_count":80,"id":18196,"video":false,"vote_average":6.3,"title":"The Sentinel","popularity":4.873,"poster_path":"\/6Z5moQXdqbNTuG0YUONragPWac4.jpg","original_language":"en","original_title":"The Sentinel","genre_ids":[27,18,9648],"backdrop_path":"\/4ZlzV940kUCXzbaz6c1nU3BYR0g.jpg","adult":false,"overview":"A commitment-shy New York fashion model moves into an old brownstone apartment, meets her weird neighbours and discovers she’s sitting on the gateway to Hell.","release_date":"1977-01-07"},{"vote_count":39,"id":32044,"video":false,"vote_average":6.5,"title":"California Split","popularity":4.769,"poster_path":"\/AslOvKRXy4tKcmmkDm1GFHTgOdF.jpg","original_language":"en","original_title":"California Split","genre_ids":[35,18],"backdrop_path":"\/qtW8WTcYkXLWzQsDudtUS3dDVsP.jpg","adult":false,"overview":"Carefree single guy Charlie Waters rooms with two lovely prostitutes, Barbara Miller and Susan Peters, and lives to gamble. Along with his glum betting buddy, Bill Denny, Charlie sets out on a gambling streak in search of the ever-elusive big payday. While Charlie and Bill have some lucky moments, they also have to contend with serious setbacks that threaten to derail their hedonistic betting binge.","release_date":"1974-08-07"},{"vote_count":47,"id":15314,"video":false,"vote_average":5.5,"title":"Mini's First Time","popularity":4.689,"poster_path":"\/9negSARLYz7qVTL9w2l0PbyvLLV.jpg","original_language":"en","original_title":"Mini's First Time","genre_ids":[35,80,18],"backdrop_path":"\/2YRJIxTSMg5uXbLGx5vI22cg0j3.jpg","adult":false,"overview":"Desperate to be free from her drunken, unloving mother Diane, the beautiful, scheming young Mini seduces her stepfather Martin and soon convinces him to join her in a sadistic scheme to have Diane declared insane. But their conspiracy soon escalates to murder and when John Garson, a young detective starts investigating, Martin and Mini begin to turn on each other.","release_date":"2006-07-14"},{"vote_count":46,"id":516525,"video":false,"vote_average":5.2,"title":"Seth Rogen's Hilarity for Charity","popularity":4.519,"poster_path":"\/isszvT74RpcIU0iBppgVwHcAorK.jpg","original_language":"en","original_title":"Seth Rogen's Hilarity for Charity","genre_ids":[35],"backdrop_path":"\/qgtFlFC7WbLR0UhwV73Si9iRZPZ.jpg","adult":false,"overview":"Seth Rogen and friends combine stand-up, sketches and music for an outrageous comedy special that could only come from the mind of Seth. Guests include Tiffany Haddish, Sarah Silverman, Michelle Wolf, John Mulaney, Michael Che, David Chang, Ike Barinholtz, Chelsea Peretti, Kumail Nanjiani, Jon Lovitz, Jeff Goldblum, Sacha Baron Cohen, Nick Kroll, Post Malone, Chris Hardwick, and Craig Robinson & The Nasty Delicious.","release_date":"2018-04-06"},{"vote_count":25,"id":24077,"video":false,"vote_average":6.1,"title":"The Tall Guy","popularity":3.404,"poster_path":"\/6tGHCij3jJu80RYSSpV0LBRLTN3.jpg","original_language":"en","original_title":"The Tall Guy","genre_ids":[35,10749],"backdrop_path":"\/1JCHHHyx9BczMZtDynyYLu2Wgyt.jpg","adult":false,"overview":"An American actor in England tries to find love and work.","release_date":"1989-02-01"},{"vote_count":40,"id":25133,"video":false,"vote_average":5.3,"title":"Transylvania 6-5000","popularity":3.387,"poster_path":"\/a0wVqMVeTEDwTMmeSbrQAFr4EBl.jpg","original_language":"en","original_title":"Transylvania 6-5000","genre_ids":[35,27],"backdrop_path":"\/9Qo8ZpAU5j5yJI77CUodebBfYE3.jpg","adult":false,"overview":"Two reporters travel to a strange castle in Transylvania to investigate the apparent reappearance of Frankenstein, and encounter the sensitive Wolfman, the horny Vampiress Odette and a whole cast of other weirdos.","release_date":"1985-11-08"},{"vote_count":42,"id":18516,"video":false,"vote_average":6.3,"title":"Adam Resurrected","popularity":3.151,"poster_path":"\/VocOhIK53XyQCYsLFVe4LjjqeD.jpg","original_language":"en","original_title":"Adam Resurrected","genre_ids":[18,10752],"backdrop_path":"\/n8vVXyZu7bzvKRPzKpQicRCncEY.jpg","adult":false,"overview":"Before the war, in Berlin, Adam was an entertainer- cabaret impresario, magician, musician-loved by all until he finds himself in a concentration camp, confronted by Commandant Klein. Adam survives the camp by becoming the Klein's \"dog\", entertaining him while his wife and daughter are sent off to die. \"Adam Resurrected\" is the story of a man who once was a dog who meets a dog who once was a boy.","release_date":"2008-08-08"},{"vote_count":13,"id":505945,"video":false,"vote_average":6.7,"title":"Team Darryl","popularity":3.034,"poster_path":"\/qpn6jttCqwavX20ToCa1FLxuzgo.jpg","original_language":"en","original_title":"Team Darryl","genre_ids":[35,99],"backdrop_path":null,"adult":false,"overview":"Fresh off being unseated as the ruler of Sakaar, the Grandmaster makes his way to Earth to start a new life. It's been over a year since Thor left Australia and Darryl has been struggling to pay his rent. Now Darryl needs a new roommate to help make the monthly payments. Unfortunately for Darryl, the Grandmaster was the only one who answered Darryl's \"Roommate Needed\" ad and with no viable options, the Grandmaster moves in.","release_date":"2018-02-20"},{"vote_count":28,"id":24200,"video":false,"vote_average":6.6,"title":"Fay Grim","popularity":2.896,"poster_path":"\/pgVzuEGB0jrei63LJsNONJ9HajB.jpg","original_language":"en","original_title":"Fay Grim","genre_ids":[35,53],"backdrop_path":"\/w7OBMXy5veHG6qgNbGRkhezSwHy.jpg","adult":false,"overview":"Many years after her notorious husband, Henry Fool, fled after killing a neighbor, Fay Grim receives a visit from CIA agent Fulbright, who tells her that Henry is dead, but that some of his journals have been unearthed in France. She sets forth on a globe-trotting odyssey that soon leads to the discovery that he is alive, and his journals are more than they appear to be.","release_date":"2006-09-11"},{"vote_count":12,"id":31913,"video":false,"vote_average":7.3,"title":"Next Stop, Greenwich Village","popularity":2.861,"poster_path":"\/7A2uH51UYXgXs5tMXE41t2OS8M5.jpg","original_language":"en","original_title":"Next Stop, Greenwich Village","genre_ids":[35,18],"backdrop_path":"\/AdGXPG1XBKYWSUrQXLvyDGilUjs.jpg","adult":false,"overview":"An aspiring Jewish actor moves out of his parents' Brooklyn apartment to seek his fortune in the bohemian life of Greenwich Village in 1953.","release_date":"1976-02-04"},{"vote_count":17,"id":37626,"video":false,"vote_average":5.7,"title":"St. Ives","popularity":2.39,"poster_path":"\/wUu2khEohWVpFhSLOoGT3reYMlY.jpg","original_language":"en","original_title":"St. Ives","genre_ids":[28,80,53],"backdrop_path":"\/6WISCcOIe0URJwQ1ZKFaoqkoAg0.jpg","adult":false,"overview":"A dabbler-in-crime and his assistant hire an ex-police reporter to recover some stolen papers.","release_date":"1976-08-01"},{"vote_count":7,"id":241939,"video":false,"vote_average":6.4,"title":"Threshold","popularity":2.306,"poster_path":"\/rPsU7FtLgKnfNS7IdKmS5upa8AF.jpg","original_language":"en","original_title":"Threshold","genre_ids":[18,878],"backdrop_path":"\/sTpbdu2AfiKBQZ2PozKzqylz1Wm.jpg","adult":false,"overview":"Celebrated heart surgeon Thomas Vrain supports the research of an offbeat scientist who has invented an artificial heart. Against the advice of the Ethics Committee,  Dr. Vrain decides to perform the first artificial heart transplant.","release_date":"1981-09-19"},{"vote_count":14,"id":345323,"video":false,"vote_average":7.8,"title":"Unity","popularity":2.29,"poster_path":"\/gRWH0Jb3nXphG9cifudKsBEBbWz.jpg","original_language":"en","original_title":"Unity","genre_ids":[99],"backdrop_path":"\/aGvTGsyfHSqAYvTW718pId53Cbk.jpg","adult":false,"overview":"Despite the advent of science, literature, technology, philosophy, religion, and so on -- none of these has assuaged humankind from killing one another, the animals, and nature. UNITY is a film about why we can't seem to get along, even after thousands and thousands of years.","release_date":"2015-08-12"},{"vote_count":3,"id":370756,"video":false,"vote_average":7,"title":"Always at The Carlyle","popularity":2.199,"poster_path":"\/ywkkKF4abwARo9WBk6WrwcGNn6B.jpg","original_language":"en","original_title":"Always at The Carlyle","genre_ids":[99],"backdrop_path":"\/4l7Ay0Yj7LpUchTZCocl8vBJ1ZE.jpg","adult":false,"overview":"The iconic Carlyle hotel has been an international destination for a particular jet set as well as a favorite haunt of the most discernible New Yorkers.","release_date":"2018-05-11"},{"vote_count":18,"id":42212,"video":false,"vote_average":4.9,"title":"Thank God It's Friday","popularity":2.148,"poster_path":"\/mwacLhP2HouBqnbWHucpLi5jgDn.jpg","original_language":"en","original_title":"Thank God It's Friday","genre_ids":[35,10402,10749],"backdrop_path":"\/z4vKWM0O2I5Eukk1O4pJ0F8k1Nf.jpg","adult":false,"overview":"It's Friday and everyone is going to the hot new disco. The Commodore's are scheduled to play if Floyd shows up with the instruments and Nicole dreams of becoming a disco star. Other characters are there to win the dance contest, or to put a little excitement into a fifth anniversary.","release_date":"1978-05-19"},{"vote_count":6,"id":101887,"video":false,"vote_average":5.7,"title":"Spinning Boris","popularity":1.9,"poster_path":"\/5LbRF6UGBSYnesVnVhFd3AqhIoG.jpg","original_language":"en","original_title":"Spinning Boris","genre_ids":[35,18],"backdrop_path":"\/2ilm0RpP0y6WT6uuKliJDOXaY22.jpg","adult":false,"overview":"Russian political elite hires American consultants to help with President Yeltsin's re-election campaign when his approval rating is down to single digits.","release_date":"2003-10-23"},{"vote_count":5,"id":503354,"video":false,"vote_average":6.8,"title":"Bugs Bunny\/Looney Tunes All-Star 50th Anniversary","popularity":1.853,"poster_path":"\/7ZiU7O8JwEBxIa9aPYIu7lZxlBd.jpg","original_language":"en","original_title":"Bugs Bunny\/Looney Tunes All-Star 50th Anniversary","genre_ids":[16,35,99],"backdrop_path":null,"adult":false,"overview":"Celebrities are interviewed about the social and working lives of Bugs, Daffy, Porky and the rest of the Looney Tunes.","release_date":"1986-01-14"},{"vote_count":6,"id":170261,"video":false,"vote_average":7,"title":"The Legend of Sleepy Hollow","popularity":1.806,"poster_path":"\/9sAtvenETAsuynbYJkEV4nC77DP.jpg","original_language":"en","original_title":"The Legend of Sleepy Hollow","genre_ids":[35,10751,14,27],"backdrop_path":"\/24BcqZsPChYGiANaeT7bcUdVIoT.jpg","adult":false,"overview":"A TV adaptation of Washington Irving's classic ghost story. Humor is the drawing card in this version, with Jeff Goldblum a nerdish Ichabod Crane, Dick Butkus an appropriately nasty Brom Bones, and Meg Foster as spirited Katrina van Tassel. Angered that Katrina has grown fond of schoolmaster Crane, Brom Bones determines to scare off the interloper by filling his head with spooky tales of a Headless Horseman. Crane pooh-poohs the legends, until one fateful ride home in the dark of night.","release_date":"1980-10-31"}]}